2 Regresjonsmodellar – Mappeeksamen IDR4000
…
Kalibreringsmodellen beskriver forholdet mellom avstand og molekylvekt. Etter log-transformering av molekylvekten, blir forholdet mellom avstand og molekylvekt tilnærmet lineært, noe som gjør den lineære regresjonsmodellen passende. R-kvadratverdien på 0.98 indikerer hvor godt modellen passer til dataene da den er tilnærmet 1. De forutsagte molekylvektene for de ukjente prøvene er basert på den tilpassede kalibreringsmodellen. Predikasjonene for de ukjente prøvene gir et estimat av deres molekylvekt basert på deres migrasjonsavstand i gelen. QQ-plottet forteller oss om forskjellene mellom observert og predikert molekylvekt følger en normalfordeling. Ideelt sett bør punktene i QQ-plottet falle langs referanselinjen noe de tilsynelatende gjør. Det vil si at modellen er godt spesifisert, og fanger forholdet mellom migrasjonsavstand og molekylvekt.

4.3.3 Del 3: Tolke en regresjonstabell

Code

library(exscidata)
library(tidyverse)
library(gt)

dat <- hypertrophy %>%
  select(PARTICIPANT, GROUP, FAST_CSA_T1, SQUAT_3RM) %>%
  print()

# A tibble: 31 × 4
   PARTICIPANT GROUP FAST_CSA_T1 SQUAT_3RM
   <chr>       <chr>       <dbl>     <dbl>
 1 MRV001      WP          4629.       152
 2 MRV002      WP          4939.       125
 3 MRV003      GWP         3940.       143
 4 MRV004      GWP         4741.       134
 5 MRV005      MALTO       3207.       138
 6 MRV006      WP          5771.       147
 7 MRV007      WP          3144.       134
 8 MRV009      GWP         5829.       166
 9 MRV010      MALTO       4875.       129
10 MRV011      MALTO       3461.       143
# ℹ 21 more rows
…
